{
  "title": "Driver",
  "permission": "driver",
  "input": {
    "id": 0,
    "drivername": "",
    "amount": "0",
    "drivingLicenseNo": "",
    "idNo": "",
    "address": "",
    "phone": "",
    "religion":"",
    "activeDate":"",
    "status": ""
  },
  "initServerInput": {
    "activeDate": "Date"
  },

  "master": {
    "option": {
      "currentPage": 1,
      "pageSize": 10,
      "statusFilters": []
    },
    "idField": "Id",
    "binding": {
      "id": "Id",
      "drivername": "DriverName",
      "amount": "Amount",
      "phone": "Phone",
      "drivingLicenseNo": "DrivingLicenseNo",
      "idNo": "IdNo",
      "religion":"Religion",
      "activeDate":"ActiveDate",
      "address": "Address",
      "status": "Status"
    },
    "display": {
      "DriverName": {
        "label": "Driver",
        "type": "text"
      },
      "Phone": {
        "label": "Phone",
        "type": "text"
      },
       "Religion": {
        "label": "Religion",
        "type": "text"
      },
       "ActiveDate": {
        "label": "Active Date",
        "type": "date"
      },
      "Amount": {
        "label": "Amount",
        "type": "number"
      },
      "Status": {
        "label": "Status",
        "type": "text"
      }
    }
  },
  "control": {
    "drivername": {
      "type": "text",
      "label": "Driver Name",
      "value": "input.drivername",
      "width": 6
    },
    "idNo": {
      "type": "text",
      "label": "ID NO",
      "value": "input.idNo",
      "width": 6
    },
    "drivingLicenseNo": {
      "type": "text",
      "label": "Driving License No",
      "value": "input.drivingLicenseNo",
      "width": 6
    },
    "address": {
      "type": "textarea",
      "label": "Address",
      "value": "input.address",
      "width": 6
    },
    "religion": {
      "type": "text",
      "label": "Religion",
      "value": "input.religion",
      "width": 6
    },
    "activeDate": {
      "type": "date",
      "label": "Active Date",
      "value": "input.activeDate",
      "width": 6
    },
    "phone": {
      "type": "text",
      "label": "Phone",
      "value": "input.phone",
      "width": 6
    },
    "amount": {
      "type": "number",
      "label": "Amount",
      "value": "input.amount",
      "width": 6
    }
  },
  "action": {
    "insert": { 
      "show": "!oldInput.id && permission.insert"
    },
    "update": {
      "show": "oldInput.id && permission.update"
    },
    "delete": { 
      "show": "oldInput.id && permission.delete",
      "prompt": true
    },
    "close": { 
      "show": "oldInput.id && permission.close ",
      "prompt": true
    },
     "open": { 
      "show": "oldInput.id && permission.open",
      "prompt": true
    },
    "print": {
      "show": "input.id === 0 && permission.print",
      "link": "./reports/sales/RptContainerDriver.aspx"
    },
    "reset": { }
  }
}
