{
  "title": "Item",
  "permission": "item",
  "input": {
    "id": 0,
    "itemId": "",
    "itemName": ""
  },
  "master": {
    "option": {
      "currentPage": 1,
      "pageSize": 10,
      "statusFilters": []
    },
    "idField": "Id",
    "binding": {
      "id": "Id",
      "itemId": "ItemId",
      "itemName": "Name"
    },
    "display": {
      "ItemId": {
        "label": "Item ID",
        "type": "text"
      },
      "Name": {
        "label": "Item Name",
        "type": "text"
      }
    }
  },
  "control": {
    "itemId": {
      "type": "text",
      "label": "Item ID",
      "value": "input.itemId",
      "width": 6
    },
    "itemName": {
      "type": "text",
      "label": "Item Name",
      "value": "input.itemName",
      "width": 6
    }
  },
  "action": {
    "insert": { 
      "show": "!oldInput.id && permission.insert"
    },
    "update": {
      "show": "oldInput.id && permission.update"
    },
    "delete": { 
      "show": "oldInput.id && permission.delete",
      "prompt": true
    },
    "reset": { }
  }
}
