{
  "title": "Packing List",
  "permission": "packinglist",
  "input": {
    "id": 0,
    "transactionNo": "",
    "transactionDate": "",
    "customerId": "",
    "customerName": "",
    "origin": "",
    "destination": "",
    "remark": "",
    "status": "",
    "createdBy": "",
    "rowVersion": [],
    "items": [],
    "filter": "Default",
    "f": "y"
  },
  "watch": {
    "filter": {
          "start": [
              "this.input.f = this.input.filter === '' ? 'n' : 'y'"
              ]
              }
  },
  "defaultDetailInput": {
    "items": {
      "detailId": 0,
      "travelDocumentId": 0,
      "travelDocumentNo": "",
      "travelDocumentDate": "",
      "vehicleNo": "",
      "netto": "0",
      "destinationNetto": "0"
    }
  },
  "initServerInput": {
    "transactionDate": "Date"
  },
  "master": {
    "option": {
      "statusFilters": ["Open", "In Process", "Closed", "Cancel"],
      "currentPage": 1,
      "pageSize": 10
    },
    "idField": "Id",
    "binding": {
      "id": "Id",
      "transactionNo": "TransactionNo",
      "transactionDate": "TransactionDate",
      "customerId": "CustomerId",
      "customerName": "CustomerName",
      "origin": "Origin",
      "destination": "Destination",
      "remark": "Remark",
      "status": "Status",
      "createdBy": "CreatedBy",
      "rowVersion": "RowVersion",
      "items": "items"
    },
    "display": {
      "TransactionNo": {
        "label": "Transaction No",
        "type": "text",
        "width": 150
      },
      "TransactionDate": {
        "label": "TransactionDate",
        "type": "date",
        "width": 100
      },
      "CustomerId": {
        "label": "Customer ID",
        "type": "text",
        "width": 100
      },
      "CustomerName": {
        "label": "Customer Name",
        "type": "text",
        "width": 250
      },
      "Status": {
        "label": "Status",
        "type": "text",
        "width": 100
      },
      "CreatedBy": {
        "label": "Created By",
        "type": "text",
        "width": 100
      }
    }
  },
  "list": {
    "customer": {
      "title": "Customer List",
      "option": {
        "currentPage": 1,
        "pageSize": 10
      },
      "idField": "CustomerId",
      "binding": {
        "customerId": "CustomerId",
        "customerName": "CustomerName"
      },
      "display": {
        "CustomerId": {
          "label": "Customer ID",
          "type": "text",
          "width": 100
        },
        "CustomerName": {
          "label": "Customer Name",
          "type": "text",
          "width": 150
        }
      }
    },
    "origin": {
      "title": "Origin - Destination List",
      "option": {
        "currentPage": 1,
        "pageSize": 10
      },
      "idField": "origin",
      "binding": {
        "destination": "Destination",
        "origin": "Origin"
      },
      "display": {
        "Origin": {
          "label": "Origin",
          "type": "text",
          "width": 150
        },
        "Destination": {
          "label": "Destination",
          "type": "text",
          "width": 150
        }
      }
    },
    "traveldocument": {
      "title": "Travel Document List",
      "option": {
        "currentPage": 1,
        "pageSize": 10
      },
      "idField": "TravelDocumentId",
      "binding": {
        "travelDocumentId": "Id",
        "travelDocumentNo": "TransactionNo",
        "travelDocumentDate": "Date",
        "vehicleNo": "VehicleNo",
        "netto": "Netto",
        "destinationNetto": "DestinationNetto",
        "destination": "Destination",
        "origin": "Origin",
        "shipname": "ShipName",
        "doNo": "DONo"
      },
      "display": {
        "Id": {
          "label": "ID",
          "type": "text",
          "width": 50
        },
        "TransactionNo": {
          "label": "Transaction No",
          "type": "text",
          "width": 150
        },
        "Origin": {
          "label": "Origin",
          "type": "text",
          "width": 150
        },
        "Destination": {
          "label": "Destination",
          "type": "text",
          "width": 150
        },
        "ShipName": {
          "label": "Shipname",
          "type": "text",
          "width": 150
        },
        "DONo": {
          "label": "DONo",
          "type": "text",
          "width": 250
        },
        "Date": {
          "label": "Date",
          "type": "date",
          "width": 100
        },
        "VehicleNo": {
          "label": "Vehicle No",
          "type": "text",
          "width": 100
        },
        "Netto": {
          "label": "Netto",
          "type": "number",
          "width": 150
        },
        "DestinationNetto": {
          "label":"Destination Netto",
          "type": "number",
          "width": 200
        }
      }
    }
  },
  
  "control": {
    "transactionNo": {
      "type": "text",
      "label": "Transaction No",
      "value": "input.transactionNo",
      "width": 3
    },
    "transactionDate": {
      "type": "date",
      "label": "Date",
      "value": "input.transactionDate",
      "width": 3
    },
    "customerId": {
      "type": "text",
      "label": "Customer ID",
      "list": "customer",
      "value": "input.customerId",
      "width": 2
    },
    "customerName": {
      "type": "text",
      "label": "Customer Name",
      "value": "input.customerName",
      "width": 4,
      "disabled": true
    },
    
    "remark": {
      "type": "textarea",
      "label": "Remark",
      "value": "input.remark",
      "width": 6
    },
    "items": {
      "type": "detail",
      "label": "Items",
      "value": "input.items",
      "action": {
        "add": {},
        "delete": {}
      },
      "control": {
        "travelDocumentNo": {
          "type": "text",
          "label": "Transaction No",
          "list": "traveldocument",
          "value": "detail.travelDocumentNo",
          "width": 200,
          "disabled": true,
          "listDisabled": false
        },      
        "travelDocumentDate": {
          "type": "date",
          "label": "Date",
          "value": "detail.travelDocumentDate",
          "width": 200,
          "disabled": true
        },
        "vehicleNo": {
          "type": "text",
          "label": "Vehicle No",
          "value": "detail.vehicleNo",
          "width": 200,
          "disabled": true
        },
        "netto": {
          "type": "number",
          "label": "Netto",
          "value": "detail.netto",
          "disabled": true
        },
        "destinationnetto":{
          "type":"number",
          "label":"Destination Netto",
          "value":"detail.destinationNetto",
          "disabled": true        
        }
      }
    },
    "filter": {
      "type": "dropdown",
      "show": "input.id !== 0 && permission.print",
      "options": [
        {
          "value": "Default",
          "label": "Default"
        },
        {
          "value": "Tonnase",
          "label": "Tonnase"
        },
        {
          "value": "TransactionNo",
          "label": "Transaction No"
        },
        {
          "value": "Destination",
          "label": "Destination"
        }
      ],
      "label": "Print By",
      "value": "input.filter",
      "width": 3
    }
  },
  "action": {
    "insert": { 
      "show": "input.id === 0 && permission.insert"
    },
    "update": { 
      "show": "input.id !== 0 && permission.update && input.status ==='Open'",
      "prompt": true
    },
    "cancel": { 
      "show": "input.id !== 0 && permission.cancel && input.status ==='Open'",
      "prompt": true
    },
    "print": {
      "show": "input.id !== 0 && permission.print",
      "link": "./reports/sales/RptPackingList.aspx",
      "inputParams": {
        "Id": "id",
        "f" : "f",
        "fn": "filter"
      }
    },
    "reset": { }
  }
}