{
  "title": "Travel Expense",
  "permission": "travelexpense",
  "input": {
    "id": 0,
    "itemId": 0,
    "itemCode": "",
    "itemName": "",
    "hasBase": 0,
    "tonBase": 0,
    "base": "0",
    "origin": "",
    "destination": "",
    "price": "0",
    "honor": "0",
    "priceBelow": "0",
    "priceAbove": "0"
  },
  "master": {
    "option": {
      "statusFilters": [],
      "currentPage": 1,
      "pageSize": 10
    },
    "idField": "Id",
    "binding": {
      "id": "Id",
      "itemId": "ItemId",
      "itemCode": "ItemCode",
      "itemName": "ItemName",
      "hasBase": "HasBase",
      "tonBase": "TonBase",
      "base": "Base",
      "origin": "Origin",
      "destination": "Destination",
      "price": "Price",
      "honor": "Honor",
      "priceBelow": "PriceBelow",
      "priceAbove": "PriceAbove"
    },
    "display": {
      "ItemCode": {
        "label": "Item ID",
        "type": "text",
        "width": 100
      },
      "ItemName": {
        "label": "Item Name",
        "type": "text",
        "width": 150
      },
      "Origin": {
        "label": "Origin",
        "type": "text",
        "width": 400
      },
      "Destination": {
        "label": "Destination",
        "type": "text",
        "width": 400
      },
      "HasBase":{
        "label":"Has Base",
        "type": "number",
        "width": 100
      },
      "TonBase":{
        "label":"Ton Base",
        "type": "number",
        "width": 100
      },
      "Base": {
        "label": "Base",
        "type": "number",
        "width": 100
      },
      "Honor": {
        "label": "Honor",
        "type": "number",
        "width": 150
      },
      "Price": {
        "label": "Price",
        "type": "number",
        "width": 150
      },
      "PriceBelow": {
        "label": "Price Below",
        "type": "number",
        "width": 150
      },
      "PriceAbove": {
        "label": "Price Above",
        "type": "number",
        "width": 150
      }
    }
  },
  "list": {
    "item": {
      "title": "Item List",
      "option": {
        "currentPage": 1,
        "pageSize": 10
      },
      "idField": "itemCode",
      "binding": {
        "itemId": "ItemId",
        "itemCode": "ItemCode",
        "itemName": "ItemName"
      },
      "display": {
        "ItemCode": {
          "label": "Item ID",
          "type": "text",
          "width": 100
        },
        "ItemName": {
          "label": "Item Name",
          "type": "text",
          "width": 200
        }
      }
    }
  },
  "control": {
    "itemCode": {
      "type": "text",
      "label": "Item ID",
      "list": "item",
      "value": "input.itemCode",
      "width": 2
    },
    "itemName": {
      "type": "text",
      "label": "Item Name",
      "value": "input.itemName",
      "width": 4
    },
    "hasBase": {
      "type": "checkbox",
      "trueValue": 1,
      "falseValue": 0,
      "label": "Has Base",
      "value": "input.hasBase",
      "width": 1
    },
    "tonBase": {
      "type": "checkbox",
      "trueValue": 1,
      "falseValue": 0,
      "label": "Ton Base",
      "value": "input.tonBase",
      "width": 2
    },
    "base": {
      "type": "number",
      "label": "Base",
      "value": "input.base",
      "width": 3,
      "disabled": "input.hasBase === 0"
    },
    "origin": {
      "type": "text",
      "label": "Origin",
      "value": "input.origin",
      "width": 6
    },
    "destination": {
      "type": "text",
      "label": "Destination",
      "value": "input.destination",
      "width": 6
    },
    "honor": {
      "type": "number",
      "label": "Honor External",
      "value": "input.honor",
      "width": 3,
      "disabled": "input.hasBase === 1"
    },
    "price": {
      "type": "number",
      "label": "Price",
      "value": "input.price",
      "width": 3,
      "disabled": "input.hasBase === 1"
    },
    "priceBelow": {
      "type": "number",
      "label": "Price Below",
      "value": "input.priceBelow",
      "width": 3,
      "disabled": "input.hasBase === 0"
    },
    "priceAbove": {
      "type": "number",
      "label": "Price Above",
      "value": "input.priceAbove",
      "width": 3,
      "disabled": "input.hasBase === 0"
    }
  },
  "action": {
    "insert": { 
      "show": "input.id === 0 && permission.insert"
    },
    "update": { 
      "show": "input.id !== 0 && permission.update",
      "prompt": true
    },
    "delete": { 
      "show": "input.id !== 0 && permission.delete",
      "prompt": true
    },
    "print": {
      "show": "input.id === 0 && permission.print",
      "link": "./reports/sales/RptContainerTravelExpense.aspx"
    },
    "reset": { }
  }
}
