{
  "title": "Cash Bank Receive",
  "permission": "cashbankreceive",
  "input": {
    "id": 0,
    "transactionType": "invoice",
    "transactionNo": "",
    "transactionDate": "",
    "invoiceId": 0,
    "invoiceNo":"",
    "grandTotalInvoice":"0",
    "customerId": "",
    "customerName": "",
    "currencyId": "",
    "currencyName": "",
    "conversion":"0",
    "receiveCash": "0",
    "cashAccountId": "",
    "cashAccountName": "",
    "receiveGiro": "0",
    "giroAccountId": "",
    "giroAccountName": "",
    "receiveBank": "0",
    "bankAccountId": "",
    "bankAccountName": "",
    "giroNo": "",
    "dueDateGiro": "",
    "receiveEtc": "0",
    "etcAccountId": "",
    "etcAccountName": "",
    "remarkEtc": "",
    "costReduction":"0",
    "remarkReduction":"",
    "remark": "",
    "total":"0",
    "grandTotal": "0",
    "createdBy":0,
    "modifiedBy": 0,
    "status":"",
    "rowVersion": []
  },
   "initServerInput": {
    "transactionDate": "Date",
    "dueDateGiro":"Date"
  },
  "watch": {
    "costReduction": {
      "start": [
        "tmp.subTotal = Decimal.sub(this.input.total,this.input.costReduction)",
        "this.input.grandTotal = tmp.subTotal"
      ]
    },
   "receiveCash": {
      "start": [
        "tmp.subTotal = this.input.receiveCash",
        "this.input.total = tmp.subTotal"
      ]
    },
    "receiveBank": {
      "start": [
        "tmp.subTotal = this.input.receiveBank",
        "this.input.total = tmp.subTotal"
      ]
    },
    "receiveGiro": {
      "start": [
        "tmp.subTotal = this.input.receiveGiro",
        "this.input.total = tmp.subTotal"
      ]
    },
    "receiveEtc": {
      "start": [
        "tmp.subTotal = this.input.receiveEtc",
        "this.input.total = tmp.subTotal"
      ]
    }
  },
  "master": {
    "option": {
      "statusFilters": ["Open", "In Process", "Closed", "Cancel"],
      "currentPage": 1,
      "pageSize": 10
    },
    "idField": "Id",
    "binding": {
    "id": "Id",
    "transactionType": "TransactionType",
    "transactionNo": "TransactionNo",
    "transactionDate": "TransactionDate",
    "invoiceId": "InvoiceId",
    "invoiceNo": "InvoiceNo",
    "grandTotalInvoice":"GrandTotalInvoice",
    "customerId": "CustomerId",
    "customerName": "CustomerName",
    "currencyId": "CurrencyId",
    "currencyName":"CurrencyName",
    "conversion":"Conversion",
    "receiveCash": "ReceiveCash",
    "cashAccountId": "CashAccountId",
    "cashAccountName": "CashAccountName",
    "receiveGiro": "ReceiveGiro",
    "giroAccountId": "GiroAccountId",
    "giroAccountName": "GiroAccountName",
    "receiveBank": "ReceiveBank",
    "bankAccountId": "BankAccountId",
    "bankAccountName": "BankAccountName",
    "giroNo": "GiroNo",
    "dueDateGiro": "DueDateGiro",
    "receiveEtc": "ReceiveEtc",
    "etcAccountId": "EtcAccountId",
    "etcAccountName": "EtcAccountName",
    "remarkEtc": "RemarkEtc",    
    "remark": "Remark",
    "costReduction": "CostReduction",
    "remarkReduction": "RemarkReduction",
    "grandTotal": "GrandTotal",
    "total":"Total",
    "createdBy":"CreatedBy",
    "status":"Status",
    "rowVersion": "RowVersion"
    },
    "display": {
      "TransactionNo": {
        "label": "Cash Bank Receive No",
        "type": "text",
        "width": 200
      },
      "TransactionDate": {
        "label": "Transaction Date",
        "type": "date",
        "width": 120
      },
      "CustomerName": {
        "label": "Customer Name",
        "type": "text",
        "width": 400
      },
      "GrandTotal": {
        "label": "Amount",
        "type": "number",
        "width": 150
      },
      "Status": {
        "label": "Status",
        "type": "text",
        "width": 100
      },
      "CreatedBy": {
        "label": "Created By",
        "type": "text",
        "width": 120
      },
      "ModifiedBy": {
        "label": "Modified By",
        "type": "text",
        "width": 120
      }
    }
  },
  "list": {
    "invoice": {
      "title": "Invoice List",
      "option": {
        "currentPage": 1,
        "pageSize": 10
      },
      "idField": "InvoiceId",
      "binding": {
        "invoiceId": "InvoiceId",
        "invoiceNo": "InvoiceNo",
        "grandTotalInvoice" : "GrandTotalInvoice"
      },
      "display": {
        "InvoiceId": {
          "label": "Invoice Id",
          "type": "text",
          "width": 100
        },
        "InvoiceNo": {
          "label": "Invoice Name",
          "type": "text",
          "width": 150
        },
        "CustomerName":{
          "label": "Customer Name",  
          "type": "text",
          "width": 150
        },
        "GrandTotalInvoice":{
          "label": "Total Amount",
          "type": "number",
          "width": 150
        }
      }
    },
    "customer": {
      "title": "Customer List",
      "option": {
        "currentPage": 1,
        "pageSize": 10
      },
      "idField": "CustomerId",
      "binding": {
        "customerId": "CustomerId",
        "customerName": "CustomerName"
      },
      "display": {
        "CustomerId": {
          "label": "Customer ID",
          "type": "text",
          "width": 100
        },
        "CustomerName": {
          "label": "Customer Name",
          "type": "text",
          "width": 400
        }
      }
    },
    "currency": {
      "title": "Currency List",
      "option": {
        "currentPage": 1,
        "pageSize": 10
      },
      "idField": "CurrencyId",
      "binding": {
        "currencyId": "CurrencyId",
        "currencyName": "CurrencyName"
      },
      "display": {
        "CurrencyId": {
          "label": "Currency ID",
          "type": "text",
          "width": 100
        },
        "CurrencyName": {
          "label": "Currency Name",
          "type": "text",
          "width": 400
        },
        "Conversion": {
          "label": "Conversion",
          "type": "number",
          "width": 400
        }
      }
    },
    "cashAccount": {
      "title": "Cash Account List",
      "option": {
        "currentPage": 1,
        "pageSize": 10
      },
      "idField": "AccountId",
      "binding": {
        "cashAccountId": "AccountId",
        "cashAccountName": "AccountName"
      },
      "display": {
        "AccountId": {
          "label": "Account ID",
          "type": "text"
        },
        "AccountName": {
          "label": "Account Name",
          "type": "text"
        },
        "Type": {
          "label": "Type",
          "type": "text"
        }
      }
    },
    "giroAccount": {
      "title": "Giro Account List",
      "option": {
        "currentPage": 1,
        "pageSize": 10
      },
      "idField": "AccountId",
      "binding": {
        "giroAccountId": "AccountId",
        "giroAccountName": "AccountName"
      },
      "display": {
        "AccountId": {
          "label": "Account ID",
          "type": "text"
        },
        "AccountName": {
          "label": "Account Name",
          "type": "text"
        },
        "Type": {
          "label": "Type",
          "type": "text"
        }
      }
    },
    "etcAccount": {
      "title": "Etc Account List",
      "option": {
        "currentPage": 1,
        "pageSize": 10
      },
      "idField": "AccountId",
      "binding": {
        "etcAccountId": "AccountId",
        "etcAccountName": "AccountName"
      },
      "display": {
        "AccountId": {
          "label": "Account ID",
          "type": "text"
        },
        "AccountName": {
          "label": "Account Name",
          "type": "text"
        },
        "Type": {
          "label": "Type",
          "type": "text"
        }
      }
    },
    "bankAccount": {
      "title": "Bank Account List",
      "option": {
        "currentPage": 1,
        "pageSize": 10
      },
      "idField": "AccountId",
      "binding": {
        "bankAccountId": "AccountId",
        "bankAccountName": "AccountName"
      },
      "display": {
        "AccountId": {
          "label": "Account ID",
          "type": "text"
        },
        "AccountName": {
          "label": "Account Name",
          "type": "text"
        },
        "Type": {
          "label": "Type",
          "type": "text"
        }
      }
    }
  },
  "control": {
    "transactionNo": {
      "type": "text",
      "label": "Transaction No",
      "value": "input.transactionNo",
      "width": 3
    },
    "transactionType": {
      "type": "dropdown",
      "options": [
        {
          "value": "invoice",
          "label": "Invoice"
        },
        {
          "value": "bankmasuk",
          "label": "Bank Masuk"
        },
        {
          "value": "penjualanaset",
          "label": "Penjualan Aset"
        },
        {
          "value": "panjar",
          "label": "Panjar"
        },
        {
          "value": "bungabank",
          "label": "Bunga Bank / Bunga Deposito"
        },
        {
          "value": "etc",
          "label": "Etc"
        }
      ],
      "label": "Transaction Type",
      "value": "input.transactionType",
      "width": 3
    },
    "customerId": {
      "type": "text",
      "label": "Customer ID",
      "list": "customer",
      "value": "input.customerId",
      "width": 2
    },
    "customerName": {
      "type": "text",
      "label": "Customer Name",
      "value": "input.customerName",
      "width": 4,
      "disabled": "true"
    },
    "transactionDate": {
      "type": "date",
      "label": "Receive Date",
      "value": "input.transactionDate",
      "width": 3
    },
    "invoiceId": {
      "type": "text",
      "label": "Invoice Id",
      "value": "input.invoiceId",
      "list": "invoice",
      "disabled": true,
      "listDisabled": "input.transactionType !== 'invoice' || input.customerId == ''",
      "width": 3
    },
    "invoiceNo": {
      "type": "text",
      "label": "Invoice No",
      "value": "input.invoiceNo",
      "disabled": true,
      "width": 3
    },
    "grandTotalInvoice": {
      "type": "number",
      "label": "Total Invoice",
      "value": "input.grandTotalInvoice",
      "disabled": true,
      "width": 3
    },
    "currencyId": {
      "type": "text",
      "label": "Currency Id",
      "list": "currency",
      "value": "input.currencyId",
      "width": 3,
      "listDisabled": false,
      "disabled": true
    },
    "currencyName": {
      "type": "text",
      "label": "Currency Name",
      "value": "input.currencyName",
      "width": 3,
      "disabled": true
    },
     "conversion": {
      "type": "number",
      "label": "Conversion",
      "value": "input.conversion",
      "width": 3,
      "disabled" : true
    },
    "cashAccountId": {
      "type": "text",
      "label": "Cash Account ID",
      "value": "input.cashAccountId",
      "list": "cashAccount",
      "listDisabled": "input.bankAccountId !=='' || input.giroAccountId !== ''",
      "disabled":"input.transactionType == 'etc'",
      "width": 4
    },
    "cashAccountName": {
      "type": "text",
      "label": "Cash Account Name",
      "value": "input.cashAccountName",
      "disabled": true,
      "width": 4
    },
    "receiveCash": {
      "type": "number",
      "label": "Receive Cash",
      "value": "input.receiveCash",
      "disabled": "input.cashAccountId === '' || input.bankAccountId !== '' || input.giroAccountId !== '' || input.etcAccountId !== '' || input.TransactionType === 'etc'",
      "width": 4
    },  
    "bankAccountId": {
      "type": "text",
      "label": "Bank Account ID",
      "value": "input.bankAccountId",
      "list": "bankAccount",
      "disabled":"input.transactionType == 'etc'",
      "listDisabled": "input.cashAccountId !=='' || input.giroAccountId !== ''",
      "width": 4
    },
    "bankAccountName": {
      "type": "text",
      "label": "Bank Account Name",
      "value": "input.bankAccountName",
      "disabled": true,
      "width": 4
    },
    "receiveBank": {
      "type": "number",
      "label": "Receive Bank",
      "value": "input.receiveBank",
      "disabled":"input.cashAccountId !== '' || input.bankAccountId === '' || input.giroAccountId !== '' || input.etcAccountId !== '' || input.TransactionType === 'etc'",
      "width": 4
    },
    "giroAccountId": {
      "type": "text",
      "label": "Giro Account ID",
      "value": "input.giroAccountId",
      "list": "giroAccount",
      "listDisabled": "input.bankAccountId !=='' || input.cashAccountId !== ''",
      "disabled":"input.transactionType == 'etc'",
      "width": 2
    },
    "giroAccountName": {
      "type": "text",
      "label": "Giro Account Name",
      "value": "input.giroAccountName",
      "disabled": true,
      "width": 3
    },
    "receiveGiro": {
      "type": "number",
      "label": "Receive Giro",
      "value": "input.receiveGiro",
      "disabled":"input.cashAccountId !== '' || input.bankAccountId !== '' || input.giroAccountId === '' || input.etcAccountId !== '' || input.TransactionType === 'etc'",
      "width": 3
    },
    "dueDateGiro": {
      "type": "date",
      "label": "Due Date Giro",
      "value": "input.dueDateGiro",
      "disabled":"input.transactionType == 'etc'",
      "width": 2
    },
    "giroNo": {
      "type": "text",
      "label": "Giro No",
      "value": "input.giroNo",
      "disabled":"input.transactionType == 'etc'",
      "width": 2
    },
    "etcAccountId": {
      "type": "text",
      "label": "Etc Account Id",
      "value": "input.etcAccountId",
      "list": "etcAccount",
      "disabled":"input.transactionType !== 'etc'",
      "width": 4
    },
    "etcAccountName": {
      "type": "text",
      "label": "Etc Account Name",
      "value": "input.etcAccountName",
      "disabled": true,
      "width": 4
    },
    "receiveEtc": {
      "type": "number",
      "label": "Receive Etc",
      "value": "input.receiveEtc",
      "disabled":"input.transactionType !== 'etc'",
      "width": 4
    },
    "remarkEtc": {
      "type": "textarea",
      "label": "Remark Etc",
      "value": "input.remarkEtc",
      "disabled":"input.transactionType !== 'etc'",
      "width": 6
    },
    "remark": {
      "type": "textarea",
      "label": "Remark",
      "value": "input.remark",
      "disabled":"input.transactionType == 'etc'",
      "width": 6
    },
    "total": {
      "type": "number",
      "label": "Total",
      "value": "input.total",
      "inline": true,
      "width": 3,
      "disabled": true
    },
    "costReduction": {
      "type": "number",
      "label": "Cost Reduction",
      "value": "input.costReduction",
      "width": 6
    },
    "remarkReduction": {
      "type": "textarea",
      "label": "Remark Reduction",
      "value": "input.remarkReduction",
      "disabled":"input.costReduction == '0'",
      "width": 6
    },
    "grandTotal": {
      "type": "number",
      "label": "Grand Total",
      "value": "input.grandTotal",
      "inline": true,
      "width": 3,
      "disabled": true
    }
  },
"action": {
    "insert": { 
      "show": "input.id === 0 && permission.insert"
    },
    "update": { 
      "show": "input.id !== 0 && permission.update && input.status ==='Open'",
      "prompt": true
    },
    "cancel": { 
      "show": "input.id !== 0 && permission.cancel && input.status ==='Open'",
      "prompt": true
    },
    "reset": { }
  }
}